…
    ## # A tibble: 1 x 8
    ##      ID LASTNAME FIRSTNAME TITLE GENDER YEAR_OF_BIRTH YEAR_OF_DEATH
    ##   <int> <chr>    <chr>     <chr> <chr>          <int> <chr>        
    ## 1 15150 Furrer   Johann H~ ""    m                  0 ""           
    ## # ... with 1 more variable: ACTIVITY <chr>

``` r
mandates_tbl %>% 
  filter(mandate_end_year==0)
```

    ## # A tibble: 183 x 9
    ##       id person_id assembly mandate_start_d~ mandate_start_m~
    ##    <int>     <int> <chr>               <int>            <int>
    ##  1  1793      5507 Executi~                9                5
    ##  2  1801      7870 Cantona~               18                8
    ##  3  1804      7874 Cantona~                9                5
    ##  4  1806      7876 Cantona~                3               11
    ##  5  1809      7882 Cantona~                9                5
    ##  6  1810      7884 Cantona~               16                6
    ##  7  1811      7885 Cantona~               18                5
    ##  8  1813      7889 Cantona~               11                1
    ##  9  1814      7890 Cantona~               17                8
    ## 10  1816      7893 Cantona~                3               11
    ## # ... with 173 more rows, and 4 more variables: mandate_start_year <dbl>,
    ## #   mandate_end_day <int>, mandate_end_month <int>, mandate_end_year <dbl>
…
    ## Warning: 3 failed to parse.

    ## Warning: 188 failed to parse.

    ## # A tibble: 47 x 6
    ## # Groups:   person_id [33]
    ##       id person_id assembly mandate_start_date  mandate_end_date   
    ##    <int>     <int> <chr>    <dttm>              <dttm>             
    ##  1   600      2991 Cantona~ 1999-12-30 00:00:00 2003-05-18 00:00:00
    ##  2  2461      9111 Executi~ 1922-12-11 00:00:00 1935-04-28 00:00:00
    ##  3  4295     13419 Executi~ 1882-08-21 00:00:00 1901-09-02 00:00:00
    ##  4  4348     13520 Grand C~ 1869-04-14 00:00:00 1869-06-13 00:00:00
    ##  5  4358     13530 Executi~ 1879-05-18 00:00:00 1893-05-14 00:00:00
    ##  6  4514     13830 Executi~ 1832-03-20 00:00:00 1839-09-09 00:00:00
    ##  7  4515     13830 Grand C~ 1838-03-20 00:00:00 1839-09-09 00:00:00
    ##  8  4512     13830 Executi~ 1845-04-03 00:00:00 1848-06-27 00:00:00
    ##  9  4717     14149 Executi~ 1846-06-25 00:00:00 1854-05-30 00:00:00
    ## 10  4718     14149 Grand C~ 1850-05-24 00:00:00 1854-05-30 00:00:00
    ## # ... with 37 more rows, and 1 more variable: end_date_prev <dttm>
…
With a treatment of missing party affiliation data we are down to 340
person id’s which were affiliated to more than one party.

``` r
affiliations_tbl %>% 
  distinct(person_id, party) %>% 
  group_by(person_id) %>% 
  summarise(no_parties=n()) %>% 
  arrange(desc(no_parties)) %>% 
  filter(no_parties>1)
```

    ## # A tibble: 449 x 2
    ##    person_id no_parties
    ##        <int>      <int>
    ##  1      9172          5
    ##  2      9233          5
    ##  3      9545          5
    ##  4      9922          5
    ##  5     10196          5
    ##  6     10537          5
    ##  7      2744          4
    ##  8      3885          4
    ##  9      3930          4
    ## 10      4771          4
    ## # ... with 439 more rows

``` r
# with treatment of missing data under party affiliation

affiliations_tbl %>% 
  filter(party!="") %>% 
  distinct(person_id, party) %>% 
  group_by(person_id) %>% 
  summarise(no_parties=n()) %>% 
  arrange(desc(no_parties)) %>% 
  filter(no_parties>1)
```

    ## # A tibble: 340 x 2
    ##    person_id no_parties
    ##        <int>      <int>
    ##  1      9233          5
    ##  2      2744          4
    ##  3      3885          4
    ##  4      4771          4
    ##  5      5216          4
    ##  6      9172          4
    ##  7      9545          4
    ##  8      9922          4
    ##  9     10196          4
    ## 10     10537          4
    ## # ... with 330 more rows
…
