…
    ## `summarise()` has grouped output by 'age_group', 'right'. You can override
    ## using the `.groups` argument.

    ## # A tibble: 60 × 6
    ## # Groups:   age_group, right [12]
    ##    age_group right survey_year count mean_prop_vote median_prop_vote
    ##    <chr>     <fct> <dbl+lbl>   <int>          <dbl>            <dbl>
    ##  1 18-24     0     2019           38           86.4             99.5
    ##  2 18-24     0     2020           32           90.2             99  
    ##  3 18-24     0     2021           23           90.3             99  
    ##  4 18-24     0     2022           19           93.6            100  
    ##  5 18-24     0     2023           12           87.2             98.5
    ##  6 18-24     1     2019           30           89.3            100  
    ##  7 18-24     1     2020           25           90.4            100  
    ##  8 18-24     1     2021           20           93.9             99  
    ##  9 18-24     1     2022           19           87.7             99  
    ## 10 18-24     1     2023           16           88.2             92.5
    ## # ℹ 50 more rows
…
