…
    ## # A tibble: 3 × 3
    ##   Sepal.Length Sepal.Width predicted_cluster
    ##          <dbl>       <dbl>             <dbl>
    ## 1      -0.999        0.903                 1
    ## 2      -0.0588      -0.902                 2
    ## 3       1.16         0.139                 3

``` r
iris_predicted <- bind_cols(iris_sepal, tibble(predicted_cluster=km3$cluster))

iris_predicted
```

    ## # A tibble: 150 × 3
    ##    Sepal.Length Sepal.Width predicted_cluster
    ##           <dbl>       <dbl>             <int>
    ##  1          5.1         3.5                 1
    ##  2          4.9         3                   1
    ##  3          4.7         3.2                 1
    ##  4          4.6         3.1                 1
    ##  5          5           3.6                 1
    ##  6          5.4         3.9                 1
    ##  7          4.6         3.4                 1
    ##  8          5           3.4                 1
    ##  9          4.4         2.9                 1
    ## 10          4.9         3.1                 1
    ## # ℹ 140 more rows
…
