…
``` r
id_more_than_1c <- oly1 %>% 
  distinct(id, noc) %>% 
  group_by(id) %>% 
  count(name="nr_delegations") %>% 
  filter(nr_delegations!=1) %>% 
  arrange(desc(nr_delegations)) %>% 
  pull(id)

oly1 %>% 
  filter(id %in% id_more_than_1c)
```

    ## # A tibble: 4,388 x 6
    ##       id   age noc    year season city    
    ##    <dbl> <dbl> <chr> <dbl> <chr>  <chr>   
    ##  1   116    28 UAR    1960 Summer Roma    
    ##  2   116    32 EGY    1964 Summer Tokyo   
    ##  3   193    21 EGY    1948 Summer London  
    ##  4   193    25 EGY    1952 Summer Helsinki
    ##  5   193    33 UAR    1960 Summer Roma    
    ##  6   195    24 EGY    1952 Summer Helsinki
    ##  7   195    32 UAR    1960 Summer Roma    
    ##  8   206    18 UAR    1960 Summer Roma    
    ##  9   206    22 EGY    1964 Summer Tokyo   
    ## 10   211    16 UAR    1960 Summer Roma    
    ## # ... with 4,378 more rows
…
So I changed my strategy and joined medals with athetes and then with
games to create “oly\_new”, which worked better for my purpose.

One more clarification, keeping a Gold medal means I need to look for
consecutive years when someone had a Gold medal.

``` r
# To show "medals" dataset has repeat entries of atheletes per game and event.
medals %>% 
  count(id, gm, event, name="nr_games") %>% 
  arrange(desc(nr_games))
```

    ## # A tibble: 269,636 x 4
    ##        id gm         event                                         nr_games
    ##     <dbl> <chr>      <chr>                                            <int>
    ##  1  77710 1932 Summ~ Art Competitions Mixed Sculpturing, Unknown ~       43
    ##  2  83312 1948 Summ~ Art Competitions Mixed Painting, Unknown Eve~       25
    ##  3  12380 1932 Summ~ Art Competitions Mixed Painting, Unknown Eve~       17
    ##  4  74532 1932 Summ~ Art Competitions Mixed Painting, Unknown Eve~       17
    ##  5  86677 1928 Summ~ Art Competitions Mixed Painting, Drawings An~       17
    ##  6  28407 1932 Summ~ Art Competitions Mixed Painting, Unknown Eve~       16
    ##  7 134046 1928 Summ~ Art Competitions Mixed Painting, Paintings          16
    ##  8  44875 1928 Summ~ Art Competitions Mixed Architecture, Archite~       14
    ##  9  44875 1928 Summ~ Art Competitions Mixed Architecture, Designs~       14
    ## 10  14083 1924 Summ~ Art Competitions Mixed Sculpturing                  13
    ## # ... with 269,626 more rows

``` r
# An example of repeat entries.
medals %>% 
  filter(id==83312)
```

    ## # A tibble: 31 x 6
    ##       id gm        team       sport       event                       medal
    ##    <dbl> <chr>     <chr>      <chr>       <chr>                       <chr>
    ##  1 83312 1928 Sum~ Great Bri~ Art Compet~ Art Competitions Mixed Pai~ <NA> 
    ##  2 83312 1928 Sum~ Great Bri~ Art Compet~ Art Competitions Mixed Pai~ <NA> 
    ##  3 83312 1928 Sum~ Great Bri~ Art Compet~ Art Competitions Mixed Pai~ <NA> 
    ##  4 83312 1928 Sum~ Great Bri~ Art Compet~ Art Competitions Mixed Pai~ <NA> 
    ##  5 83312 1928 Sum~ Great Bri~ Art Compet~ Art Competitions Mixed Pai~ <NA> 
    ##  6 83312 1932 Sum~ Great Bri~ Art Compet~ Art Competitions Mixed Pai~ <NA> 
    ##  7 83312 1948 Sum~ Great Bri~ Art Compet~ Art Competitions Mixed Pai~ <NA> 
    ##  8 83312 1948 Sum~ Great Bri~ Art Compet~ Art Competitions Mixed Pai~ <NA> 
    ##  9 83312 1948 Sum~ Great Bri~ Art Compet~ Art Competitions Mixed Pai~ <NA> 
    ## 10 83312 1948 Sum~ Great Bri~ Art Compet~ Art Competitions Mixed Pai~ <NA> 
    ## # ... with 21 more rows
…
The top 10 athletes who competed in most events are listed below,
starting with the gymnast Heikki Ilmari Savolainen of Finland who
competed 39 times over 5 years. The list of top 10 includes 12 as the
last three althletes listed all competed 30 times.

``` r
athletes %>% 
  count(name, sex, name="no_ids") %>% 
  arrange(desc(no_ids))
```

    ## # A tibble: 134,786 x 3
    ##    name           sex   no_ids
    ##    <chr>          <chr>  <int>
    ##  1 Ivan Ivanov    M          5
    ##  2 Lszl Szab      M          5
    ##  3 Wolfgang Mller M          5
    ##  4 Bla Nagy       M          4
    ##  5 Jos Gonzlez    M          4
    ##  6 Jzsef Kovcs    M          4
    ##  7 Jzsef Nagy     M          4
    ##  8 Kim Mi-Jeong   F          4
    ##  9 Kim Yun-Mi     F          4
    ## 10 Li Yang        M          4
    ## # ... with 134,776 more rows
…
Just checking to see what the data looks like for the first one in the
list.

``` r
oly_all %>% 
  filter(name=="Heikki Ilmari Savolainen")
```

    ## # A tibble: 39 x 14
    ##        id gm    event sport medal name  sex   height weight  year season
    ##     <dbl> <chr> <chr> <chr> <chr> <chr> <chr>  <dbl>  <dbl> <dbl> <chr> 
    ##  1 106296 1928~ Gymn~ Gymn~ <NA>  Heik~ M        172     64  1928 Summer
    ##  2 106296 1928~ Gymn~ Gymn~ <NA>  Heik~ M        172     64  1928 Summer
    ##  3 106296 1928~ Gymn~ Gymn~ <NA>  Heik~ M        172     64  1928 Summer
    ##  4 106296 1928~ Gymn~ Gymn~ <NA>  Heik~ M        172     64  1928 Summer
    ##  5 106296 1928~ Gymn~ Gymn~ <NA>  Heik~ M        172     64  1928 Summer
    ##  6 106296 1928~ Gymn~ Gymn~ <NA>  Heik~ M        172     64  1928 Summer
    ##  7 106296 1928~ Gymn~ Gymn~ Bron~ Heik~ M        172     64  1928 Summer
    ##  8 106296 1932~ Gymn~ Gymn~ Bron~ Heik~ M        172     64  1932 Summer
    ##  9 106296 1932~ Gymn~ Gymn~ Bron~ Heik~ M        172     64  1932 Summer
    ## 10 106296 1932~ Gymn~ Gymn~ <NA>  Heik~ M        172     64  1932 Summer
    ## # ... with 29 more rows, and 3 more variables: city <chr>, age <dbl>,
    ## #   noc <chr>
…
To do tis I first transform the column medal into a factor variable that
takes on 0 for no medal and 1 for when a medal was won.

``` r
oly_all<- oly_all %>% 
  mutate(medal=replace(medal, !is.na(medal), 1)) %>% 
  mutate(medal=replace(medal, is.na(medal), 0)) %>% 
  mutate(medal=factor(medal, levels = c(0,1)))

# A contingency table
oly_all %>% 
  count(noc, medal, name="freq")
```

    ## # A tibble: 379 x 3
    ##    noc   medal  freq
    ##    <chr> <fct> <int>
    ##  1 AFG   0       124
    ##  2 AFG   1         2
    ##  3 AHO   0        78
    ##  4 AHO   1         1
    ##  5 ALB   0        70
    ##  6 ALG   0       534
    ##  7 ALG   1        17
    ##  8 AND   0       169
    ##  9 ANG   0       267
    ## 10 ANT   0       133
    ## # ... with 369 more rows
…
