…
Now I separate authors and identify unique authors, and eventual
separation errors.

``` r
as_tibble(str_split_fixed(accepted_papers$value, "\n", 2)) %>% 
  rename("paper_name"="V1", "authors_list"="V2") %>% 
  mutate(split_list= str_split(authors_list, "\\)+\\,+\\s")) %>% # split where the patterns is "), "
  unnest_longer(split_list) %>% 
  mutate(split_list=str_replace(split_list, "^and ", "")) %>%  #remove "and " in the beginning of name
  mutate(split_list=str_replace(split_list, "\\)$", "")) %>% # remove parenthesis at end of name
  arrange(split_list) %>% 
  distinct(split_list, .keep_all = TRUE) # remove duplicates among authors
```

    ## # A tibble: 556 × 3
    ##    paper_name                                            authors_list split_list
    ##    <chr>                                                 <chr>        <chr>     
    ##  1 GenAIPABench: A Benchmark for Generative AI-based Pr… Aamir Hamid… Aamir Ham…
    ##  2 SublonK: Sublinear Prover PlonK                       Arka Rai Ch… Aarushi G…
    ##  3 MAPLE: MArkov Process Leakage attacks on Encrypted S… Seny Kamara… Abdelkari…
    ##  4 AUTOLYCUS: Exploiting Explainable Artificial Intelli… Abdullah Ca… Abdullah …
    ##  5 Traceable mixnets                                     Prashant Ag… Abhinav N…
    ##  6 Selective Authenticated Pilot Location Disclosure fo… Pietro Tede… Abu Dhabi…
    ##  7 Snail: Secure Single Iteration Localization           James Chonc… Ada Gavri…
    ##  8 How Does Connecting Online Activities to Advertising… Florian Far… Adam J. A…
    ##  9 Defining and Controlling Information Leakage in US E… Arthur Amer… Adam McKo…
    ## 10 Summary Reports Optimization in the Privacy Sandbox … Hidayet Aks… Adam Seal…
    ## # ℹ 546 more rows
…
new_list  
```

    ## # A tibble: 36 × 3
    ##    paper_name                                            authors_list split_list
    ##    <chr>                                                 <chr>        <chr>     
    ##  1 Deniability in Automated Contact Tracing: Impossibil… Christoph U… "Christop…
    ##  2 Deniability in Automated Contact Tracing: Impossibil… Christoph U… " Krzyszt…
    ##  3 Mitigating Inference Risks with the NIST Privacy Fra… Christopher… "Christop…
    ##  4 Mitigating Inference Risks with the NIST Privacy Fra… Christopher… " Joshua …
    ##  5 Anonymous Complaint Aggregation for Secure Messaging  Connor Bell… "Connor B…
    ##  6 Anonymous Complaint Aggregation for Secure Messaging  Connor Bell… " Saba Es…
    ##  7 Revealing the True Cost of Locally Differentially Pr… Héber H. Ar… "Héber H.…
    ##  8 Revealing the True Cost of Locally Differentially Pr… Héber H. Ar… " Sébasti…
    ##  9 Two Steps Forward and One Step Back: The Right to Op… Jan Charata… "Jan Char…
    ## 10 Two Steps Forward and One Step Back: The Right to Op… Jan Charata… " Eleanor…
    ## # ℹ 26 more rows
…
``` r
original_list <- as_tibble(str_split_fixed(accepted_papers$value, "\n", 2)) %>% 
  rename("paper_name"="V1", "authors_list"="V2") %>% 
  mutate(split_list= str_split(authors_list, "\\)+\\,+\\s")) %>% # split where the patterns is "), "
  unnest_longer(split_list) %>% 
  mutate(split_list=str_replace(split_list, "^and ", "")) %>%  #remove "and " in the beginning of name
  mutate(split_list=str_replace(split_list, "\\)$", "")) %>% # remove parenthesis at end of name
  arrange(split_list) %>% 
  distinct(split_list, .keep_all = TRUE)

original_list
```

    ## # A tibble: 556 × 3
    ##    paper_name                                            authors_list split_list
    ##    <chr>                                                 <chr>        <chr>     
    ##  1 GenAIPABench: A Benchmark for Generative AI-based Pr… Aamir Hamid… Aamir Ham…
    ##  2 SublonK: Sublinear Prover PlonK                       Arka Rai Ch… Aarushi G…
    ##  3 MAPLE: MArkov Process Leakage attacks on Encrypted S… Seny Kamara… Abdelkari…
    ##  4 AUTOLYCUS: Exploiting Explainable Artificial Intelli… Abdullah Ca… Abdullah …
    ##  5 Traceable mixnets                                     Prashant Ag… Abhinav N…
    ##  6 Selective Authenticated Pilot Location Disclosure fo… Pietro Tede… Abu Dhabi…
    ##  7 Snail: Secure Single Iteration Localization           James Chonc… Ada Gavri…
    ##  8 How Does Connecting Online Activities to Advertising… Florian Far… Adam J. A…
    ##  9 Defining and Controlling Information Leakage in US E… Arthur Amer… Adam McKo…
    ## 10 Summary Reports Optimization in the Privacy Sandbox … Hidayet Aks… Adam Seal…
    ## # ℹ 546 more rows

``` r
merged_list <- bind_rows(original_list, new_list)

merged_list %>% 
  arrange(split_list) %>% 
  distinct(split_list, .keep_all = TRUE)
```

    ## # A tibble: 591 × 3
    ##    paper_name                                            authors_list split_list
    ##    <chr>                                                 <chr>        <chr>     
    ##  1 Onion Services in the Wild: A Study of Deanonymizati… Pascal Tipp… " Adrian …
    ##  2 PRIVIC: A privacy-preserving method for incremental … Sayan Biswa… " Catusci…
    ##  3 A Deniability Analysis of Signal’s Initial Handshake… Rune Fiedle… " Christi…
    ##  4 Johnny Still Can’t Opt-out: Assessing the IAB CCPA C… Muhammad Ab… " Christo…
    ##  5 Evaluating Google's Protected Audience Protocol       Minjun Long… " David E…
    ##  6 FlashSwift: A Configurable and More Efficient Range … Nan Wang (C… " Dongxi …
    ##  7 Two Steps Forward and One Step Back: The Right to Op… Jan Charata… " Eleanor…
    ##  8 SoK: Metadata-Protecting Communication Systems        Sajin Sasy … " Ian Gol…
    ##  9 Efficient Issuer-Hiding Authentication, Application … Olivier San… " Jacques…
    ## 10 Post-quantum XML and SAML Single Sign-On              Johannes Mü… " Jan Oup…
    ## # ℹ 581 more rows
…
    ## # A tibble: 2 × 3
    ##   paper_name                                             authors_list split_list
    ##   <chr>                                                  <chr>        <chr>     
    ## 1 Towards Biologically Plausible and Private Gene Expre… Dingfan Che… Bonn      
    ## 2 What Do Privacy Advertisements Communicate to Consume… Xiaoxin She… US

Thus, here is an improved list of 581 distinct authors, including the
papers they got accepted and their affiliations.

``` r
merged_list %>% 
  filter(str_length(split_list)>5, !str_detect(split_list, "Eindhoven, Netherlands"), !str_detect(split_list, "University of California, Berkeley")) # removing obviously wrong authors  
```

    ## # A tibble: 581 × 3
    ##    paper_name                                            authors_list split_list
    ##    <chr>                                                 <chr>        <chr>     
    ##  1 GenAIPABench: A Benchmark for Generative AI-based Pr… Aamir Hamid… Aamir Ham…
    ##  2 SublonK: Sublinear Prover PlonK                       Arka Rai Ch… Aarushi G…
    ##  3 MAPLE: MArkov Process Leakage attacks on Encrypted S… Seny Kamara… Abdelkari…
    ##  4 AUTOLYCUS: Exploiting Explainable Artificial Intelli… Abdullah Ca… Abdullah …
    ##  5 Traceable mixnets                                     Prashant Ag… Abhinav N…
    ##  6 Selective Authenticated Pilot Location Disclosure fo… Pietro Tede… Abu Dhabi…
    ##  7 Snail: Secure Single Iteration Localization           James Chonc… Ada Gavri…
    ##  8 How Does Connecting Online Activities to Advertising… Florian Far… Adam J. A…
    ##  9 Defining and Controlling Information Leakage in US E… Arthur Amer… Adam McKo…
    ## 10 Summary Reports Optimization in the Privacy Sandbox … Hidayet Aks… Adam Seal…
    ## # ℹ 571 more rows
