…
## The logistic distribution

``` r
gaussian_dist <- tibble(x=seq(-4, 4, 0.20),
                        gauss_pdf_x=dnorm(x))

gaussian_dist
```

    ## # A tibble: 41 × 2
    ##        x gauss_pdf_x
    ##    <dbl>       <dbl>
    ##  1  -4      0.000134
    ##  2  -3.8    0.000292
    ##  3  -3.6    0.000612
    ##  4  -3.4    0.00123 
    ##  5  -3.2    0.00238 
    ##  6  -3      0.00443 
    ##  7  -2.8    0.00792 
    ##  8  -2.6    0.0136  
    ##  9  -2.4    0.0224  
    ## 10  -2.2    0.0355  
    ## # ℹ 31 more rows
…
