…
tidy(cars_lm) # obtain a tibble with the estimation results
```

    ## # A tibble: 2 × 5
    ##   term        estimate std.error statistic  p.value
    ##   <chr>          <dbl>     <dbl>     <dbl>    <dbl>
    ## 1 (Intercept)   -17.6      6.76      -2.60 1.23e- 2
    ## 2 speed           3.93     0.416      9.46 1.49e-12

``` r
augment(cars_lm) # observation-level results, fitted are the fitted values and .resid contains the residuals
```

    ## # A tibble: 50 × 8
    ##     dist speed .fitted .resid   .hat .sigma  .cooksd .std.resid
    ##    <dbl> <dbl>   <dbl>  <dbl>  <dbl>  <dbl>    <dbl>      <dbl>
    ##  1     2     4   -1.85   3.85 0.115    15.5 0.00459       0.266
    ##  2    10     4   -1.85  11.8  0.115    15.4 0.0435        0.819
    ##  3     4     7    9.95  -5.95 0.0715   15.5 0.00620      -0.401
    ##  4    22     7    9.95  12.1  0.0715   15.4 0.0255        0.813
    ##  5    16     8   13.9    2.12 0.0600   15.5 0.000645      0.142
    ##  6    10     9   17.8   -7.81 0.0499   15.5 0.00713      -0.521
    ##  7    18    10   21.7   -3.74 0.0413   15.5 0.00133      -0.249
    ##  8    26    10   21.7    4.26 0.0413   15.5 0.00172       0.283
    ##  9    34    10   21.7   12.3  0.0413   15.4 0.0143        0.814
    ## 10    17    11   25.7   -8.68 0.0341   15.5 0.00582      -0.574
    ## # ℹ 40 more rows
…
``` r
#alternative way to calculate leverage --> .hat

cars_lm %>% 
  augment() %>% 
  arrange(desc(.hat))
```

    ## # A tibble: 50 × 8
    ##     dist speed .fitted .resid   .hat .sigma .cooksd .std.resid
    ##    <dbl> <dbl>   <dbl>  <dbl>  <dbl>  <dbl>   <dbl>      <dbl>
    ##  1     2     4   -1.85   3.85 0.115    15.5 0.00459      0.266
    ##  2    10     4   -1.85  11.8  0.115    15.4 0.0435       0.819
    ##  3    85    25   80.7    4.27 0.0873   15.5 0.00404      0.291
    ##  4    70    24   76.8   -6.80 0.0740   15.5 0.00843     -0.459
    ##  5    92    24   76.8   15.2  0.0740   15.4 0.0421       1.03 
    ##  6    93    24   76.8   16.2  0.0740   15.3 0.0479       1.09 
    ##  7   120    24   76.8   43.2  0.0740   14.1 0.340        2.92 
    ##  8     4     7    9.95  -5.95 0.0715   15.5 0.00620     -0.401
    ##  9    22     7    9.95  12.1  0.0715   15.4 0.0255       0.813
    ## 10    54    23   72.9  -18.9  0.0622   15.3 0.0532      -1.27 
    ## # ℹ 40 more rows

Influence = it shows how much the model would change if we reran it
without an observation. The influence of each observation is based on
size of the residuals and the leverage. We use Cook’s distance, which is
saved as .cooksd in the augmented results table. The bigger the number,
the bigger the influence. It turn out that the highest influence point
here is the one depicted as a triangle in the above graph.

``` r
augment(cars_lm) %>% 
  arrange(desc(.cooksd))
```

    ## # A tibble: 50 × 8
    ##     dist speed .fitted .resid   .hat .sigma .cooksd .std.resid
    ##    <dbl> <dbl>   <dbl>  <dbl>  <dbl>  <dbl>   <dbl>      <dbl>
    ##  1   120    24   76.8    43.2 0.0740   14.1  0.340       2.92 
    ##  2    80    14   37.5    42.5 0.0214   14.2  0.0856      2.80 
    ##  3    32    20   61.1   -29.1 0.0354   14.9  0.0681     -1.92 
    ##  4    54    23   72.9   -18.9 0.0622   15.3  0.0532     -1.27 
    ##  5    84    18   53.2    30.8 0.0249   14.9  0.0526      2.03 
    ##  6    93    24   76.8    16.2 0.0740   15.3  0.0479      1.09 
    ##  7    10     4   -1.85   11.8 0.115    15.4  0.0435      0.819
    ##  8    92    24   76.8    15.2 0.0740   15.4  0.0421      1.03 
    ##  9    36    19   57.1   -21.1 0.0295   15.2  0.0295     -1.40 
    ## 10    76    18   53.2    22.8 0.0249   15.2  0.0288      1.50 
    ## # ℹ 40 more rows
…
