…
``` r
fit_data <- fitness_tracking %>% 
  left_join(fitness_members, by=c("id")) %>% 
  rename("wk_000"= "weight") %>% 
  select(id, wk_000, everything()) %>% 
  pivot_longer(cols = wk_000:wk_052, names_to = "week_number", values_to = "weight") %>% 
  mutate(week_number=str_replace(week_number, "wk_0", "")) %>% 
  mutate(bmi=weight/(height*height)*10000)

fit_data
```

    ## # A tibble: 22,154 × 10
    ##    id     recommendation_from gender birth_date registration_date m_category
    ##    <chr>  <chr>               <chr>  <date>     <date>            <chr>     
    ##  1 000001 <NA>                M      1966-11-12 2018-01-02        Economy   
    ##  2 000001 <NA>                M      1966-11-12 2018-01-02        Economy   
    ##  3 000001 <NA>                M      1966-11-12 2018-01-02        Economy   
    ##  4 000001 <NA>                M      1966-11-12 2018-01-02        Economy   
    ##  5 000001 <NA>                M      1966-11-12 2018-01-02        Economy   
    ##  6 000001 <NA>                M      1966-11-12 2018-01-02        Economy   
    ##  7 000001 <NA>                M      1966-11-12 2018-01-02        Economy   
    ##  8 000001 <NA>                M      1966-11-12 2018-01-02        Economy   
    ##  9 000001 <NA>                M      1966-11-12 2018-01-02        Economy   
    ## 10 000001 <NA>                M      1966-11-12 2018-01-02        Economy   
    ## # ℹ 22,144 more rows
    ## # ℹ 4 more variables: height <dbl>, week_number <chr>, weight <dbl>, bmi <dbl>
…
``` r
fit_data %>% 
  mutate(week_number=as.numeric(week_number)) %>% 
  group_by(m_category, week_number) %>% 
  summarise(mean_bmi=mean(bmi, na.rm=TRUE)) %>% 
  ungroup
```

    ## `summarise()` has grouped output by 'm_category'. You can override using the
    ## `.groups` argument.

    ## # A tibble: 159 × 3
    ##    m_category week_number mean_bmi
    ##    <chr>            <dbl>    <dbl>
    ##  1 Balance              0     25.2
    ##  2 Balance              1     24.7
    ##  3 Balance              2     24.4
    ##  4 Balance              3     24.3
    ##  5 Balance              4     24.1
    ##  6 Balance              5     24.0
    ##  7 Balance              6     23.9
    ##  8 Balance              7     23.8
    ##  9 Balance              8     23.7
    ## 10 Balance              9     23.7
    ## # ℹ 149 more rows
…
